simulation/qsim/semaforo.msim.vcd
$comment
	File created using the following command:
		vcd file semaforo.msim.vcd -direction
$end
$date
	Tue Oct 06 22:50:34 2020
$end
$version
	ModelSim Version 10.1d
$end
$timescale
	1ps
$end
$scope module semaforo_vlg_vec_tst $end
$var reg 1 ! clk $end
$var reg 1 " sd $end
$var reg 1 # se $end
$var wire 1 $ sema $end
$var wire 1 % semb $end
$var wire 1 & teste [31] $end
$var wire 1 ' teste [30] $end
$var wire 1 ( teste [29] $end
$var wire 1 ) teste [28] $end
$var wire 1 * teste [27] $end
$var wire 1 + teste [26] $end
$var wire 1 , teste [25] $end
$var wire 1 - teste [24] $end
$var wire 1 . teste [23] $end
$var wire 1 / teste [22] $end
$var wire 1 0 teste [21] $end
$var wire 1 1 teste [20] $end
$var wire 1 2 teste [19] $end
$var wire 1 3 teste [18] $end
$var wire 1 4 teste [17] $end
$var wire 1 5 teste [16] $end
$var wire 1 6 teste [15] $end
$var wire 1 7 teste [14] $end
$var wire 1 8 teste [13] $end
$var wire 1 9 teste [12] $end
$var wire 1 : teste [11] $end
$var wire 1 ; teste [10] $end
$var wire 1 < teste [9] $end
$var wire 1 = teste [8] $end
$var wire 1 > teste [7] $end
$var wire 1 ? teste [6] $end
$var wire 1 @ teste [5] $end
$var wire 1 A teste [4] $end
$var wire 1 B teste [3] $end
$var wire 1 C teste [2] $end
$var wire 1 D teste [1] $end
$var wire 1 E teste [0] $end
$var wire 1 F sampler $end
$scope module i1 $end
$var wire 1 G gnd $end
$var wire 1 H vcc $end
$var wire 1 I unknown $end
$var tri1 1 J devclrn $end
$var tri1 1 K devpor $end
$var tri1 1 L devoe $end
$var wire 1 M Add0~0_combout $end
$var wire 1 N Equal0~3_combout $end
$var wire 1 O Equal0~5_combout $end
$var wire 1 P sensor~combout $end
$var wire 1 Q sd~combout $end
$var wire 1 R se~combout $end
$var wire 1 S clk~combout $end
$var wire 1 T clk~clkctrl_outclk $end
$var wire 1 U Add0~1 $end
$var wire 1 V Add0~2_combout $end
$var wire 1 W Add0~3 $end
$var wire 1 X Add0~4_combout $end
$var wire 1 Y Add0~5 $end
$var wire 1 Z Add0~7 $end
$var wire 1 [ Add0~8_combout $end
$var wire 1 \ Add0~9 $end
$var wire 1 ] Add0~11 $end
$var wire 1 ^ Add0~13 $end
$var wire 1 _ Add0~14_combout $end
$var wire 1 ` Add0~15 $end
$var wire 1 a Add0~17 $end
$var wire 1 b Add0~18_combout $end
$var wire 1 c Add0~19 $end
$var wire 1 d Add0~21 $end
$var wire 1 e Add0~22_combout $end
$var wire 1 f Add0~23 $end
$var wire 1 g Add0~25 $end
$var wire 1 h Add0~26_combout $end
$var wire 1 i Add0~27 $end
$var wire 1 j Add0~28_combout $end
$var wire 1 k Add0~29 $end
$var wire 1 l Add0~30_combout $end
$var wire 1 m Add0~31 $end
$var wire 1 n Add0~32_combout $end
$var wire 1 o Add0~33 $end
$var wire 1 p Add0~34_combout $end
$var wire 1 q Add0~35 $end
$var wire 1 r Add0~36_combout $end
$var wire 1 s Add0~37 $end
$var wire 1 t Add0~39 $end
$var wire 1 u Add0~40_combout $end
$var wire 1 v Add0~41 $end
$var wire 1 w Add0~43 $end
$var wire 1 x Add0~45 $end
$var wire 1 y Add0~46_combout $end
$var wire 1 z Add0~47 $end
$var wire 1 { Add0~49 $end
$var wire 1 | Add0~50_combout $end
$var wire 1 } Add0~51 $end
$var wire 1 ~ Add0~53 $end
$var wire 1 !! Add0~54_combout $end
$var wire 1 "! Add0~55 $end
$var wire 1 #! Add0~57 $end
$var wire 1 $! Add0~58_combout $end
$var wire 1 %! Add0~56_combout $end
$var wire 1 &! Add0~59 $end
$var wire 1 '! Add0~60_combout $end
$var wire 1 (! Equal0~8_combout $end
$var wire 1 )! Add0~52_combout $end
$var wire 1 *! Add0~48_combout $end
$var wire 1 +! Equal0~7_combout $end
$var wire 1 ,! Add0~44_combout $end
$var wire 1 -! Equal0~6_combout $end
$var wire 1 .! Equal0~9_combout $end
$var wire 1 /! hab~feeder_combout $end
$var wire 1 0! hab~regout $end
$var wire 1 1! temp[0]~0_combout $end
$var wire 1 2! Add0~6_combout $end
$var wire 1 3! Equal0~0_combout $end
$var wire 1 4! Add0~10_combout $end
$var wire 1 5! Equal0~1_combout $end
$var wire 1 6! Add0~20_combout $end
$var wire 1 7! Equal0~2_combout $end
$var wire 1 8! Equal0~4_combout $end
$var wire 1 9! sem~0_combout $end
$var wire 1 :! sem~regout $end
$var wire 1 ;! Add0~12_combout $end
$var wire 1 <! Add0~16_combout $end
$var wire 1 =! Add0~24_combout $end
$var wire 1 >! Add0~38_combout $end
$var wire 1 ?! Add0~42_combout $end
$var wire 1 @! Add0~61 $end
$var wire 1 A! Add0~62_combout $end
$var wire 1 B! temp [31] $end
$var wire 1 C! temp [30] $end
$var wire 1 D! temp [29] $end
$var wire 1 E! temp [28] $end
$var wire 1 F! temp [27] $end
$var wire 1 G! temp [26] $end
$var wire 1 H! temp [25] $end
$var wire 1 I! temp [24] $end
$var wire 1 J! temp [23] $end
$var wire 1 K! temp [22] $end
$var wire 1 L! temp [21] $end
$var wire 1 M! temp [20] $end
$var wire 1 N! temp [19] $end
$var wire 1 O! temp [18] $end
$var wire 1 P! temp [17] $end
$var wire 1 Q! temp [16] $end
$var wire 1 R! temp [15] $end
$var wire 1 S! temp [14] $end
$var wire 1 T! temp [13] $end
$var wire 1 U! temp [12] $end
$var wire 1 V! temp [11] $end
$var wire 1 W! temp [10] $end
$var wire 1 X! temp [9] $end
$var wire 1 Y! temp [8] $end
$var wire 1 Z! temp [7] $end
$var wire 1 [! temp [6] $end
$var wire 1 \! temp [5] $end
$var wire 1 ]! temp [4] $end
$var wire 1 ^! temp [3] $end
$var wire 1 _! temp [2] $end
$var wire 1 `! temp [1] $end
$var wire 1 a! temp [0] $end
$upscope $end
$upscope $end
$enddefinitions $end
#0
$dumpvars
0!
0"
0#
1$
0%
0E
0D
0C
0B
0A
0@
0?
0>
0=
0<
0;
0:
09
08
07
06
05
04
03
02
01
00
0/
0.
0-
0,
0+
0*
0)
0(
0'
0&
xF
0G
1H
xI
1J
1K
1L
1M
1N
1O
0P
0Q
0R
0S
0T
0U
0V
1W
0X
0Y
1Z
0[
0\
1]
0^
0_
1`
0a
0b
1c
0d
0e
1f
0g
0h
1i
0j
0k
0l
1m
0n
0o
0p
1q
0r
0s
1t
0u
0v
1w
0x
0y
1z
0{
0|
1}
0~
0!!
1"!
0#!
0$!
0%!
1&!
0'!
1(!
0)!
0*!
1+!
0,!
1-!
1.!
1/!
00!
11!
02!
03!
04!
05!
06!
17!
08!
09!
0:!
0;!
0<!
0=!
0>!
0?!
0@!
0A!
0a!
0`!
0_!
0^!
0]!
0\!
0[!
0Z!
0Y!
0X!
0W!
0V!
0U!
0T!
0S!
0R!
0Q!
0P!
0O!
0N!
0M!
0L!
0K!
0J!
0I!
0H!
0G!
0F!
0E!
0D!
0C!
0B!
$end
#1250
1!
1S
1T
0F
1a!
1U
0M
1E
1V
01!
#2500
0!
0S
0T
1F
#3750
1!
1S
1T
0F
0a!
1`!
0U
1M
0W
0V
0E
1D
1W
1V
11!
1X
0X
#5000
0!
0S
0T
1F
#6250
1!
1S
1T
0F
1a!
1U
0M
1E
0W
0V
01!
1X
#7500
0!
0S
0T
1F
#8750
1!
1S
1T
0F
0a!
1_!
0`!
0U
1M
1Y
0X
1W
1V
0E
1C
0D
0V
11!
12!
0Y
1X
02!
#10000
0!
0S
0T
1F
#11250
1!
1S
1T
0F
1a!
1U
0M
1E
1V
01!
#12500
0!
0S
0T
1F
#13750
1!
1S
1T
0F
0a!
1`!
0U
1M
0W
0V
0E
1D
1W
1V
11!
1Y
0X
0Y
1X
12!
02!
#15000
0!
0S
0T
1F
#16250
1!
1S
1T
0F
1a!
1U
0M
1E
0W
0V
01!
1Y
0X
12!
#17500
0!
0S
0T
1F
#18750
1!
1S
1T
0F
1^!
0a!
0_!
0`!
0Z
02!
0U
1M
0Y
1X
1W
1V
1B
0E
0C
0D
1[
0V
11!
1Z
12!
0X
0[
#20000
1"
0!
1Q
0S
0T
1F
1P
10!
#21250
1!
1S
1T
0F
1a!
1U
0M
1E
1V
01!
#22500
0!
0S
0T
1F
#23750
1!
1S
1T
0F
0a!
1`!
0U
1M
0W
0V
0E
1D
1W
1V
11!
1X
0X
#25000
0!
0S
0T
1F
#26250
1!
1S
1T
0F
1a!
1U
0M
1E
0W
0V
01!
1X
#27500
0!
0S
0T
1F
#28750
1!
1S
1T
0F
0a!
1_!
0`!
13!
0U
1M
1Y
0X
1W
1V
0E
1C
0D
0V
11!
0Z
02!
0Y
1X
1[
1Z
12!
0[
#30000
0"
0!
0Q
0S
0T
1F
0P
#31250
1!
1S
1T
0F
1a!
03!
1U
0M
1E
1V
01!
#32500
0!
0S
0T
1F
#33750
1!
1S
1T
0F
0a!
1`!
0U
1M
0W
0V
0E
1D
1W
1V
11!
1Y
0X
0Y
1X
0Z
02!
1Z
12!
1[
0[
#35000
0!
0S
0T
1F
#36250
1!
1S
1T
0F
1a!
1U
0M
1E
0W
0V
01!
1Y
0X
0Z
02!
1[
#37500
0!
0S
0T
1F
#38750
1!
1S
1T
0F
0^!
0a!
1]!
0_!
0`!
1Z
12!
0U
1M
1\
0[
0Y
1X
1W
1V
0B
0E
1A
0C
0D
0\
1[
0V
11!
14!
02!
0X
04!
#40000
0!
0S
0T
1F
#41250
1!
1S
1T
0F
1a!
1U
0M
1E
1V
01!
#42500
0!
0S
0T
1F
#43750
1!
1S
1T
0F
0a!
1`!
0U
1M
0W
0V
0E
1D
1W
1V
11!
1X
0X
#45000
0!
0S
0T
1F
#46250
1!
1S
1T
0F
1a!
1U
0M
1E
0W
0V
01!
1X
#47500
0!
0S
0T
1F
#48750
1!
1S
1T
0F
0a!
1_!
0`!
0U
1M
1Y
0X
1W
1V
0E
1C
0D
0V
11!
12!
0Y
1X
02!
#50000
0!
0S
0T
1F
#51250
1!
1S
1T
0F
1a!
1U
0M
1E
1V
01!
#52500
0!
0S
0T
1F
#53750
1!
1S
1T
0F
0a!
1`!
0U
1M
0W
0V
0E
1D
1W
1V
11!
1Y
0X
0Y
1X
12!
02!
#55000
0!
0S
0T
1F
#56250
1!
1S
1T
0F
1a!
1U
0M
1E
0W
0V
01!
1Y
0X
12!
#57500
0!
0S
0T
1F
#58750
1!
1S
1T
0F
1^!
0a!
0_!
0`!
0Z
02!
0U
1M
0Y
1X
1W
1V
1B
0E
0C
0D
1\
0[
0V
11!
1Z
12!
0X
14!
0\
1[
04!
#60000
0!
0S
0T
1F
#61250
1!
1S
1T
0F
1a!
1U
0M
1E
1V
01!
#62500
0!
0S
0T
1F
#63750
1!
1S
1T
0F
0a!
1`!
0U
1M
0W
0V
0E
1D
1W
1V
11!
1X
0X
#65000
0!
0S
0T
1F
#66250
1!
1S
1T
0F
1a!
1U
0M
1E
0W
0V
01!
1X
#67500
0!
0S
0T
1F
#68750
1!
1S
1T
0F
0a!
1_!
0`!
13!
0U
1M
1Y
0X
1W
1V
0E
1C
0D
0V
11!
0Z
02!
0Y
1X
1\
0[
1Z
12!
14!
0\
1[
04!
#70000
0!
0S
0T
1F
#71250
1!
1S
1T
0F
1a!
03!
1U
0M
1E
1V
01!
#72500
0!
0S
0T
1F
#73750
1!
1S
1T
0F
0a!
1`!
0U
1M
0W
0V
0E
1D
1W
1V
11!
1Y
0X
0Y
1X
0Z
02!
1Z
12!
1\
0[
0\
1[
14!
04!
#75000
0!
0S
0T
1F
#76250
1!
1S
1T
0F
1a!
1U
0M
1E
0W
0V
01!
1Y
0X
0Z
02!
1\
0[
14!
#77500
0!
0S
0T
1F
#78750
1!
1S
1T
0F
1\!
0^!
0a!
0]!
0_!
0`!
0]
04!
1Z
12!
0U
1M
0\
1[
0Y
1X
1W
1V
1@
0B
0E
0A
0C
0D
1;!
0[
0V
11!
1]
14!
02!
0X
0;!
#80000
0!
0S
0T
1F
#81250
1!
1S
1T
0F
1a!
1U
0M
1E
1V
01!
#82500
0!
0S
0T
1F
#83750
1!
1S
1T
0F
0a!
1`!
0U
1M
0W
0V
0E
1D
1W
1V
11!
1X
0X
#85000
0!
0S
0T
1F
#86250
1!
1S
1T
0F
1a!
1U
0M
1E
0W
0V
01!
1X
#87500
0!
0S
0T
1F
#88750
1!
1S
1T
0F
0a!
1_!
0`!
0U
1M
1Y
0X
1W
1V
0E
1C
0D
0V
11!
12!
0Y
1X
02!
#90000
0!
0S
0T
1F
#91250
1!
1S
1T
0F
1a!
1U
0M
1E
1V
01!
#92500
0!
0S
0T
1F
#93750
1!
1S
1T
0F
0a!
1`!
0U
1M
0W
0V
0E
1D
1W
1V
11!
1Y
0X
0Y
1X
12!
02!
#95000
0!
0S
0T
1F
#96250
1!
1S
1T
0F
1a!
1U
0M
1E
0W
0V
01!
1Y
0X
12!
#97500
0!
0S
0T
1F
#98750
1!
1S
1T
0F
1^!
0a!
0_!
0`!
0Z
02!
0U
1M
0Y
1X
1W
1V
1B
0E
0C
0D
1[
0V
11!
1Z
12!
0X
0[
#100000
0!
0S
0T
1F
#101250
1!
1S
1T
0F
1a!
1U
0M
1E
1V
01!
#102500
0!
0S
0T
1F
#103750
1!
1S
1T
0F
0a!
1`!
0U
1M
0W
0V
0E
1D
1W
1V
11!
1X
0X
#105000
0!
0S
0T
1F
#106250
1!
1S
1T
0F
1a!
1U
0M
1E
0W
0V
01!
1X
#107500
0!
0S
0T
1F
#108750
1!
1S
1T
0F
0a!
1_!
0`!
13!
0U
1M
1Y
0X
1W
1V
0E
1C
0D
0V
11!
0Z
02!
0Y
1X
1[
1Z
12!
0[
#110000
0!
0S
0T
1F
#111250
1!
1S
1T
0F
1a!
03!
1U
0M
1E
1V
01!
#112500
0!
0S
0T
1F
#113750
1!
1S
1T
0F
0a!
1`!
0U
1M
0W
0V
0E
1D
1W
1V
11!
1Y
0X
0Y
1X
0Z
02!
1Z
12!
1[
0[
#115000
0!
0S
0T
1F
#116250
1!
1S
1T
0F
1a!
1U
0M
1E
0W
0V
01!
1Y
0X
0Z
02!
1[
#117500
0!
0S
0T
1F
#118750
1!
1S
1T
0F
0^!
0a!
1]!
0_!
0`!
1Z
12!
0U
1M
15!
1\
0[
0Y
1X
1W
1V
0B
0E
1A
0C
0D
0\
1[
0V
11!
0]
04!
02!
0X
1]
14!
1;!
0;!
#120000
0!
0S
0T
1F
#121250
1!
1S
1T
0F
1a!
1U
0M
1E
1V
01!
#122500
0!
0S
0T
1F
#123750
1!
1S
1T
0F
0a!
1`!
0U
1M
0W
0V
0E
1D
1W
1V
11!
1X
0X
#125000
0!
0S
0T
1F
#126250
1!
1S
1T
0F
1a!
1U
0M
1E
0W
0V
01!
1X
#127500
0!
0S
0T
1F
#128750
1!
1S
1T
0F
0a!
1_!
0`!
0U
1M
1Y
0X
1W
1V
0E
1C
0D
0V
11!
12!
0Y
1X
02!
#130000
0!
0S
0T
1F
#131250
1!
1S
1T
0F
1a!
1U
0M
1E
1V
01!
#132500
0!
0S
0T
1F
#133750
1!
1S
1T
0F
0a!
1`!
0U
1M
0W
0V
0E
1D
1W
1V
11!
1Y
0X
0Y
1X
12!
02!
#135000
0!
0S
0T
1F
#136250
1!
1S
1T
0F
1a!
1U
0M
1E
0W
0V
01!
1Y
0X
12!
#137500
0!
0S
0T
1F
#138750
1!
1S
1T
0F
1^!
0a!
0_!
0`!
0Z
02!
0U
1M
0Y
1X
1W
1V
1B
0E
0C
0D
1\
0[
0V
11!
1Z
12!
0X
0]
04!
0\
1[
1;!
1]
14!
0;!
#140000
0!
0S
0T
1F
#141250
1!
1S
1T
0F
1a!
1U
0M
1E
1V
01!
#142500
0!
0S
0T
1F
#143750
1!
1S
1T
0F
0a!
1`!
0U
1M
0W
0V
0E
1D
1W
1V
11!
1X
0X
#145000
0!
0S
0T
1F
#146250
1!
1S
1T
0F
1a!
1U
0M
1E
0W
0V
01!
1X
#147500
0!
0S
0T
1F
#148750
1!
1S
1T
0F
0a!
1_!
0`!
13!
0U
1M
1Y
0X
1W
1V
0E
1C
0D
18!
0V
11!
0Z
02!
0Y
1X
19!
1\
0[
1Z
12!
0]
04!
0\
1[
1;!
1]
14!
0;!
#150000
0!
0S
0T
1F
#151250
1!
1S
1T
0F
1:!
1a!
03!
1U
0M
1%
1E
0$
08!
1V
01!
#152500
0!
0S
0T
1F
#153750
1!
1S
1T
0F
0a!
1`!
0U
1M
0W
0V
0E
1D
1W
1V
11!
1Y
0X
0Y
1X
0Z
02!
1Z
12!
1\
0[
0\
1[
0]
04!
1]
14!
1;!
0;!
#155000
0!
0S
0T
1F
#156250
1!
1S
1T
0F
1a!
1U
0M
1E
0W
0V
01!
1Y
0X
0Z
02!
1\
0[
0]
04!
1;!
#157500
0!
0S
0T
1F
#158750
1!
1S
1T
0F
1[!
0\!
0^!
0a!
0]!
0_!
0`!
05!
1^
0;!
1]
14!
1Z
12!
0U
1M
0\
1[
0Y
1X
1W
1V
1?
0@
0B
0E
0A
0C
0D
1_
0^
1;!
0[
0V
11!
04!
02!
0X
0_
#160000
0!
0S
0T
1F
#161250
1!
1S
1T
0F
1a!
1U
0M
1E
1V
01!
#162500
0!
0S
0T
1F
#163750
1!
1S
1T
0F
0a!
1`!
0U
1M
0W
0V
0E
1D
1W
1V
11!
1X
0X
#165000
0!
0S
0T
1F
#166250
1!
1S
1T
0F
1a!
1U
0M
1E
0W
0V
01!
1X
#167500
0!
0S
0T
1F
#168750
1!
1S
1T
0F
0a!
1_!
0`!
0U
1M
1Y
0X
1W
1V
0E
1C
0D
0V
11!
12!
0Y
1X
02!
#170000
0!
0S
0T
1F
#171250
1!
1S
1T
0F
1a!
1U
0M
1E
1V
01!
#172500
0!
0S
0T
1F
#173750
1!
1S
1T
0F
0a!
1`!
0U
1M
0W
0V
0E
1D
1W
1V
11!
1Y
0X
0Y
1X
12!
02!
#175000
0!
0S
0T
1F
#176250
1!
1S
1T
0F
1a!
1U
0M
1E
0W
0V
01!
1Y
0X
12!
#177500
0!
0S
0T
1F
#178750
1!
1S
1T
0F
1^!
0a!
0_!
0`!
0Z
02!
0U
1M
0Y
1X
1W
1V
1B
0E
0C
0D
1[
0V
11!
1Z
12!
0X
0[
#180000
0!
0S
0T
1F
#181250
1!
1S
1T
0F
1a!
1U
0M
1E
1V
01!
#182500
0!
0S
0T
1F
#183750
1!
1S
1T
0F
0a!
1`!
0U
1M
0W
0V
0E
1D
1W
1V
11!
1X
0X
#185000
0!
0S
0T
1F
#186250
1!
1S
1T
0F
1a!
1U
0M
1E
0W
0V
01!
1X
#187500
0!
0S
0T
1F
#188750
1!
1S
1T
0F
0a!
1_!
0`!
13!
0U
1M
1Y
0X
1W
1V
0E
1C
0D
0V
11!
0Z
02!
0Y
1X
1[
1Z
12!
0[
#190000
0!
0S
0T
1F
#191250
1!
1S
1T
0F
1a!
03!
1U
0M
1E
1V
01!
#192500
0!
0S
0T
1F
#193750
1!
1S
1T
0F
0a!
1`!
0U
1M
0W
0V
0E
1D
1W
1V
11!
1Y
0X
0Y
1X
0Z
02!
1Z
12!
1[
0[
#195000
0!
0S
0T
1F
#196250
1!
1S
1T
0F
1a!
1U
0M
1E
0W
0V
01!
1Y
0X
0Z
02!
1[
#197500
0!
0S
0T
1F
#198750
1!
1S
1T
0F
0^!
0a!
1]!
0_!
0`!
1Z
12!
0U
1M
1\
0[
0Y
1X
1W
1V
0B
0E
1A
0C
0D
0\
1[
0V
11!
14!
02!
0X
04!
#200000
0!
0S
0T
1F
#201250
1!
1S
1T
0F
1a!
1U
0M
1E
1V
01!
#202500
0!
0S
0T
1F
#203750
1!
1S
1T
0F
0a!
1`!
0U
1M
0W
0V
0E
1D
1W
1V
11!
1X
0X
#205000
0!
0S
0T
1F
#206250
1!
1S
1T
0F
1a!
1U
0M
1E
0W
0V
01!
1X
#207500
0!
0S
0T
1F
#208750
1!
1S
1T
0F
0a!
1_!
0`!
0U
1M
1Y
0X
1W
1V
0E
1C
0D
0V
11!
12!
0Y
1X
02!
#210000
0!
0S
0T
1F
#211250
1!
1S
1T
0F
1a!
1U
0M
1E
1V
01!
#212500
0!
0S
0T
1F
#213750
1!
1S
1T
0F
0a!
1`!
0U
1M
0W
0V
0E
1D
1W
1V
11!
1Y
0X
0Y
1X
12!
02!
#215000
0!
0S
0T
1F
#216250
1!
1S
1T
0F
1a!
1U
0M
1E
0W
0V
01!
1Y
0X
12!
#217500
0!
0S
0T
1F
#218750
1!
1S
1T
0F
1^!
0a!
0_!
0`!
0Z
02!
0U
1M
0Y
1X
1W
1V
1B
0E
0C
0D
1\
0[
0V
11!
1Z
12!
0X
14!
0\
1[
04!
#220000
0!
0S
0T
1F
#221250
1!
1S
1T
0F
1a!
1U
0M
1E
1V
01!
#222500
0!
0S
0T
1F
#223750
1!
1S
1T
0F
0a!
1`!
0U
1M
0W
0V
0E
1D
1W
1V
11!
1X
0X
#225000
0!
0S
0T
1F
#226250
1!
1S
1T
0F
1a!
1U
0M
1E
0W
0V
01!
1X
#227500
0!
0S
0T
1F
#228750
1!
1S
1T
0F
0a!
1_!
0`!
13!
0U
1M
1Y
0X
1W
1V
0E
1C
0D
0V
11!
0Z
02!
0Y
1X
1\
0[
1Z
12!
14!
0\
1[
04!
#230000
0!
0S
0T
1F
#231250
1!
1S
1T
0F
1a!
03!
1U
0M
1E
1V
01!
#232500
0!
0S
0T
1F
#233750
1!
1S
1T
0F
0a!
1`!
0U
1M
0W
0V
0E
1D
1W
1V
11!
1Y
0X
0Y
1X
0Z
02!
1Z
12!
1\
0[
0\
1[
14!
04!
#235000
0!
0S
0T
1F
#236250
1!
1S
1T
0F
1a!
1U
0M
1E
0W
0V
01!
1Y
0X
0Z
02!
1\
0[
14!
#237500
0!
0S
0T
1F
#238750
1!
1S
1T
0F
1\!
0^!
0a!
0]!
0_!
0`!
0]
04!
1Z
12!
0U
1M
0\
1[
0Y
1X
1W
1V
1@
0B
0E
0A
0C
0D
1^
0;!
0[
0V
11!
1]
14!
02!
0X
1_
0^
1;!
0_
#240000
0!
0S
0T
1F
#241250
1!
1S
1T
0F
1a!
1U
0M
1E
1V
01!
#242500
0!
0S
0T
1F
#243750
1!
1S
1T
0F
0a!
1`!
0U
1M
0W
0V
0E
1D
1W
1V
11!
1X
0X
#245000
0!
0S
0T
1F
#246250
1!
1S
1T
0F
1a!
1U
0M
1E
0W
0V
01!
1X
#247500
0!
0S
0T
1F
#248750
1!
1S
1T
0F
0a!
1_!
0`!
0U
1M
1Y
0X
1W
1V
0E
1C
0D
0V
11!
12!
0Y
1X
02!
#250000
0!
0S
0T
1F
#251250
1!
1S
1T
0F
1a!
1U
0M
1E
1V
01!
#252500
0!
0S
0T
1F
#253750
1!
1S
1T
0F
0a!
1`!
0U
1M
0W
0V
0E
1D
1W
1V
11!
1Y
0X
0Y
1X
12!
02!
#255000
0!
0S
0T
1F
#256250
1!
1S
1T
0F
1a!
1U
0M
1E
0W
0V
01!
1Y
0X
12!
#257500
0!
0S
0T
1F
#258750
1!
1S
1T
0F
1^!
0a!
0_!
0`!
0Z
02!
0U
1M
0Y
1X
1W
1V
1B
0E
0C
0D
1[
0V
11!
1Z
12!
0X
0[
#260000
0!
0S
0T
1F
#261250
1!
1S
1T
0F
1a!
1U
0M
1E
1V
01!
#262500
0!
0S
0T
1F
#263750
1!
1S
1T
0F
0a!
1`!
0U
1M
0W
0V
0E
1D
1W
1V
11!
1X
0X
#265000
0!
0S
0T
1F
#266250
1!
1S
1T
0F
1a!
1U
0M
1E
0W
0V
01!
1X
#267500
0!
0S
0T
1F
#268750
1!
1S
1T
0F
0a!
1_!
0`!
13!
0U
1M
1Y
0X
1W
1V
0E
1C
0D
0V
11!
0Z
02!
0Y
1X
1[
1Z
12!
0[
#270000
0!
0S
0T
1F
#271250
1!
1S
1T
0F
1a!
03!
1U
0M
1E
1V
01!
#272500
0!
0S
0T
1F
#273750
1!
1S
1T
0F
0a!
1`!
0U
1M
0W
0V
0E
1D
1W
1V
11!
1Y
0X
0Y
1X
0Z
02!
1Z
12!
1[
0[
#275000
0!
0S
0T
1F
#276250
1!
1S
1T
0F
1a!
1U
0M
1E
0W
0V
01!
1Y
0X
0Z
02!
1[
#277500
0!
0S
0T
1F
#278750
1!
1S
1T
0F
0^!
0a!
1]!
0_!
0`!
1Z
12!
0U
1M
1\
0[
0Y
1X
1W
1V
0B
0E
1A
0C
0D
0\
1[
0V
11!
0]
04!
02!
0X
1]
14!
1^
0;!
0^
1;!
1_
0_
#280000
0!
0S
0T
1F
#281250
1!
1S
1T
0F
1a!
1U
0M
1E
1V
01!
#282500
0!
0S
0T
1F
#283750
1!
1S
1T
0F
0a!
1`!
0U
1M
0W
0V
0E
1D
1W
1V
11!
1X
0X
#285000
0!
0S
0T
1F
#286250
1!
1S
1T
0F
1a!
1U
0M
1E
0W
0V
01!
1X
#287500
0!
0S
0T
1F
#288750
1!
1S
1T
0F
0a!
1_!
0`!
0U
1M
1Y
0X
1W
1V
0E
1C
0D
0V
11!
12!
0Y
1X
02!
#290000
0!
0S
0T
1F
#291250
1!
1S
1T
0F
1a!
1U
0M
1E
1V
01!
#292500
0!
0S
0T
1F
#293750
1!
1S
1T
0F
0a!
1`!
0U
1M
0W
0V
0E
1D
1W
1V
11!
1Y
0X
0Y
1X
12!
02!
#295000
0!
0S
0T
1F
#296250
1!
1S
1T
0F
1a!
1U
0M
1E
0W
0V
01!
1Y
0X
12!
#297500
0!
0S
0T
1F
#298750
1!
1S
1T
0F
1^!
0a!
0_!
0`!
0Z
02!
0U
1M
0Y
1X
1W
1V
1B
0E
0C
0D
1\
0[
0V
11!
1Z
12!
0X
0]
04!
0\
1[
1^
0;!
1]
14!
1_
0^
1;!
0_
#300000
0!
0S
0T
1F
#301250
1!
1S
1T
0F
1a!
1U
0M
1E
1V
01!
#302500
0!
0S
0T
1F
#303750
1!
1S
1T
0F
0a!
1`!
0U
1M
0W
0V
0E
1D
1W
1V
11!
1X
0X
#305000
0!
0S
0T
1F
#306250
1!
1S
1T
0F
1a!
1U
0M
1E
0W
0V
01!
1X
#307500
0!
0S
0T
1F
#308750
1!
1S
1T
0F
0a!
1_!
0`!
13!
0U
1M
1Y
0X
1W
1V
0E
1C
0D
0V
11!
0Z
02!
0Y
1X
1\
0[
1Z
12!
0]
04!
0\
1[
1^
0;!
1]
14!
1_
0^
1;!
0_
#310000
0!
0S
0T
1F
#311250
1!
1S
1T
0F
1a!
03!
1U
0M
1E
1V
01!
#312500
0!
0S
0T
1F
#313750
1!
1S
1T
0F
0a!
1`!
0U
1M
0W
0V
0E
1D
1W
1V
11!
1Y
0X
0Y
1X
0Z
02!
1Z
12!
1\
0[
0\
1[
0]
04!
1]
14!
1^
0;!
0^
1;!
1_
0_
#315000
0!
0S
0T
1F
#316250
1!
1S
1T
0F
1a!
1U
0M
1E
0W
0V
01!
1Y
0X
0Z
02!
1\
0[
0]
04!
1^
0;!
1_
#317500
0!
0S
0T
1F
#318750
1!
1S
1T
0F
0[!
0\!
0^!
0a!
1Z!
0]!
0_!
0`!
0^
1;!
1]
14!
1Z
12!
0U
1M
0`
0_
0\
1[
0Y
1X
1W
1V
0?
0@
0B
0E
1>
0A
0C
0D
1`
1_
0;!
0[
0V
11!
1<!
04!
02!
0X
0<!
#320000
0!
0S
0T
1F
#321250
1!
1S
1T
0F
1a!
1U
0M
1E
1V
01!
#322500
0!
0S
0T
1F
#323750
1!
1S
1T
0F
0a!
1`!
0U
1M
0W
0V
0E
1D
1W
1V
11!
1X
0X
#325000
0!
0S
0T
1F
#326250
1!
1S
1T
0F
1a!
1U
0M
1E
0W
0V
01!
1X
#327500
0!
0S
0T
1F
#328750
1!
1S
1T
0F
0a!
1_!
0`!
0U
1M
1Y
0X
1W
1V
0E
1C
0D
0V
11!
12!
0Y
1X
02!
#330000
0!
0S
0T
1F
#331250
1!
1S
1T
0F
1a!
1U
0M
1E
1V
01!
#332500
0!
0S
0T
1F
#333750
1!
1S
1T
0F
0a!
1`!
0U
1M
0W
0V
0E
1D
1W
1V
11!
1Y
0X
0Y
1X
12!
02!
#335000
0!
0S
0T
1F
#336250
1!
1S
1T
0F
1a!
1U
0M
1E
0W
0V
01!
1Y
0X
12!
#337500
0!
0S
0T
1F
#338750
1!
1S
1T
0F
1^!
0a!
0_!
0`!
0Z
02!
0U
1M
0Y
1X
1W
1V
1B
0E
0C
0D
1[
0V
11!
1Z
12!
0X
0[
#340000
0!
0S
0T
1F
#341250
1!
1S
1T
0F
1a!
1U
0M
1E
1V
01!
#342500
0!
0S
0T
1F
#343750
1!
1S
1T
0F
0a!
1`!
0U
1M
0W
0V
0E
1D
1W
1V
11!
1X
0X
#345000
0!
0S
0T
1F
#346250
1!
1S
1T
0F
1a!
1U
0M
1E
0W
0V
01!
1X
#347500
0!
0S
0T
1F
#348750
1!
1S
1T
0F
0a!
1_!
0`!
13!
0U
1M
1Y
0X
1W
1V
0E
1C
0D
0V
11!
0Z
02!
0Y
1X
1[
1Z
12!
0[
#350000
0!
0S
0T
1F
#351250
1!
1S
1T
0F
1a!
03!
1U
0M
1E
1V
01!
#352500
0!
0S
0T
1F
#353750
1!
1S
1T
0F
0a!
1`!
0U
1M
0W
0V
0E
1D
1W
1V
11!
1Y
0X
0Y
1X
0Z
02!
1Z
12!
1[
0[
#355000
0!
0S
0T
1F
#356250
1!
1S
1T
0F
1a!
1U
0M
1E
0W
0V
01!
1Y
0X
0Z
02!
1[
#357500
0!
0S
0T
1F
